ISO-10303-21;
HEADER;
/* Generated by software containing ST-Developer
 * from STEP Tools, Inc. (www.steptools.com) 
 */

FILE_DESCRIPTION(
/* description */ (''),
/* implementation_level */ '2;1');

FILE_NAME(
/* name */ 'Hotend Adapter Bowden.step',
/* time_stamp */ '2022-12-04T18:18:12-05:00',
/* author */ (''),
/* organization */ (''),
/* preprocessor_version */ 'ST-DEVELOPER v19.2',
/* originating_system */ 'Autodesk Translation Framework v11.17.0.187',

/* authorisation */ '');

FILE_SCHEMA (('AUTOMOTIVE_DESIGN { 1 0 10303 214 3 1 1 }'));
ENDSEC;

DATA;
#10=MECHANICAL_DESIGN_GEOMETRIC_PRESENTATION_REPRESENTATION('',(#13),#1205);
#11=SHAPE_REPRESENTATION_RELATIONSHIP('SRR','None',#1212,#12);
#12=ADVANCED_BREP_SHAPE_REPRESENTATION('',(#14),#1204);
#13=STYLED_ITEM('',(#1222),#14);
#14=MANIFOLD_SOLID_BREP('Main',#645);
#15=FACE_BOUND('',#117,.T.);
#16=FACE_BOUND('',#122,.T.);
#17=FACE_BOUND('',#123,.T.);
#18=FACE_BOUND('',#126,.T.);
#19=FACE_BOUND('',#127,.T.);
#20=FACE_BOUND('',#144,.T.);
#21=FACE_BOUND('',#148,.T.);
#22=PLANE('',#667);
#23=PLANE('',#671);
#24=PLANE('',#675);
#25=PLANE('',#682);
#26=PLANE('',#684);
#27=PLANE('',#695);
#28=PLANE('',#704);
#29=PLANE('',#706);
#30=PLANE('',#713);
#31=PLANE('',#714);
#32=PLANE('',#717);
#33=PLANE('',#718);
#34=PLANE('',#720);
#35=PLANE('',#723);
#36=PLANE('',#728);
#37=CIRCLE('',#663,2.);
#38=CIRCLE('',#664,2.);
#39=CIRCLE('',#666,2.);
#40=CIRCLE('',#670,4.7);
#41=CIRCLE('',#673,4.7);
#42=CIRCLE('',#678,5.75);
#43=CIRCLE('',#681,5.75);
#44=CIRCLE('',#685,8.);
#45=CIRCLE('',#686,8.);
#46=CIRCLE('',#687,3.);
#47=CIRCLE('',#688,4.);
#48=CIRCLE('',#689,2.);
#49=CIRCLE('',#690,2.);
#50=CIRCLE('',#691,2.05);
#51=CIRCLE('',#692,2.05);
#52=CIRCLE('',#694,8.);
#53=CIRCLE('',#696,2.);
#54=CIRCLE('',#697,4.);
#55=CIRCLE('',#698,3.);
#56=CIRCLE('',#699,8.);
#57=CIRCLE('',#700,2.);
#58=CIRCLE('',#701,1.55);
#59=CIRCLE('',#702,1.55);
#60=CIRCLE('',#710,8.);
#61=CIRCLE('',#722,1.55);
#62=CIRCLE('',#724,2.05);
#63=CIRCLE('',#727,1.55);
#64=CIRCLE('',#729,2.05);
#65=ELLIPSE('',#661,4.17419343975524,2.85);
#66=ELLIPSE('',#665,2.92925855421421,2.);
#67=ELLIPSE('',#669,6.64680374315402,4.7);
#68=ELLIPSE('',#674,6.64680374315402,4.7);
#69=ELLIPSE('',#677,8.13172798364587,5.75);
#70=ELLIPSE('',#680,8.13172798364587,5.75);
#71=ELLIPSE('',#683,13.0547041139384,9.75825712052613);
#72=ELLIPSE('',#709,11.3137084989848,8.);
#73=ELLIPSE('',#712,6.64680374315355,4.7);
#74=ELLIPSE('',#715,6.64680374315355,4.7);
#75=FACE_OUTER_BOUND('',#109,.T.);
#76=FACE_OUTER_BOUND('',#110,.T.);
#77=FACE_OUTER_BOUND('',#111,.T.);
#78=FACE_OUTER_BOUND('',#112,.T.);
#79=FACE_OUTER_BOUND('',#113,.T.);
#80=FACE_OUTER_BOUND('',#114,.T.);
#81=FACE_OUTER_BOUND('',#115,.T.);
#82=FACE_OUTER_BOUND('',#116,.T.);
#83=FACE_OUTER_BOUND('',#118,.T.);
#84=FACE_OUTER_BOUND('',#119,.T.);
#85=FACE_OUTER_BOUND('',#120,.T.);
#86=FACE_OUTER_BOUND('',#121,.T.);
#87=FACE_OUTER_BOUND('',#124,.T.);
#88=FACE_OUTER_BOUND('',#125,.T.);
#89=FACE_OUTER_BOUND('',#128,.T.);
#90=FACE_OUTER_BOUND('',#129,.T.);
#91=FACE_OUTER_BOUND('',#130,.T.);
#92=FACE_OUTER_BOUND('',#131,.T.);
#93=FACE_OUTER_BOUND('',#132,.T.);
#94=FACE_OUTER_BOUND('',#133,.T.);
#95=FACE_OUTER_BOUND('',#134,.T.);
#96=FACE_OUTER_BOUND('',#135,.T.);
#97=FACE_OUTER_BOUND('',#136,.T.);
#98=FACE_OUTER_BOUND('',#137,.T.);
#99=FACE_OUTER_BOUND('',#138,.T.);
#100=FACE_OUTER_BOUND('',#139,.T.);
#101=FACE_OUTER_BOUND('',#140,.T.);
#102=FACE_OUTER_BOUND('',#141,.T.);
#103=FACE_OUTER_BOUND('',#142,.T.);
#104=FACE_OUTER_BOUND('',#143,.T.);
#105=FACE_OUTER_BOUND('',#145,.T.);
#106=FACE_OUTER_BOUND('',#146,.T.);
#107=FACE_OUTER_BOUND('',#147,.T.);
#108=FACE_OUTER_BOUND('',#149,.T.);
#109=EDGE_LOOP('',(#406,#407,#408));
#110=EDGE_LOOP('',(#409,#410,#411));
#111=EDGE_LOOP('',(#412,#413,#414,#415,#416,#417,#418,#419,#420,#421,#422,
#423));
#112=EDGE_LOOP('',(#424,#425,#426,#427,#428,#429,#430,#431,#432,#433,#434));
#113=EDGE_LOOP('',(#435,#436,#437,#438,#439));
#114=EDGE_LOOP('',(#440,#441,#442,#443));
#115=EDGE_LOOP('',(#444,#445,#446,#447,#448));
#116=EDGE_LOOP('',(#449,#450,#451,#452));
#117=EDGE_LOOP('',(#453));
#118=EDGE_LOOP('',(#454,#455,#456,#457,#458));
#119=EDGE_LOOP('',(#459,#460,#461,#462,#463));
#120=EDGE_LOOP('',(#464,#465,#466,#467,#468));
#121=EDGE_LOOP('',(#469,#470,#471,#472,#473,#474,#475,#476,#477,#478,#479,
#480));
#122=EDGE_LOOP('',(#481));
#123=EDGE_LOOP('',(#482));
#124=EDGE_LOOP('',(#483,#484,#485,#486));
#125=EDGE_LOOP('',(#487,#488,#489,#490,#491,#492,#493,#494,#495,#496,#497,
#498));
#126=EDGE_LOOP('',(#499));
#127=EDGE_LOOP('',(#500));
#128=EDGE_LOOP('',(#501,#502,#503,#504));
#129=EDGE_LOOP('',(#505,#506,#507,#508));
#130=EDGE_LOOP('',(#509,#510,#511,#512));
#131=EDGE_LOOP('',(#513,#514,#515,#516));
#132=EDGE_LOOP('',(#517,#518,#519,#520));
#133=EDGE_LOOP('',(#521,#522,#523,#524,#525,#526,#527,#528,#529,#530,#531,
#532));
#134=EDGE_LOOP('',(#533,#534,#535,#536));
#135=EDGE_LOOP('',(#537,#538,#539,#540));
#136=EDGE_LOOP('',(#541,#542,#543,#544,#545,#546));
#137=EDGE_LOOP('',(#547,#548,#549,#550));
#138=EDGE_LOOP('',(#551,#552,#553,#554,#555,#556,#557,#558,#559));
#139=EDGE_LOOP('',(#560,#561,#562,#563));
#140=EDGE_LOOP('',(#564,#565,#566,#567));
#141=EDGE_LOOP('',(#568,#569,#570,#571));
#142=EDGE_LOOP('',(#572,#573,#574,#575));
#143=EDGE_LOOP('',(#576));
#144=EDGE_LOOP('',(#577));
#145=EDGE_LOOP('',(#578,#579,#580,#581));
#146=EDGE_LOOP('',(#582,#583,#584,#585));
#147=EDGE_LOOP('',(#586));
#148=EDGE_LOOP('',(#587));
#149=EDGE_LOOP('',(#588,#589,#590,#591));
#150=B_SPLINE_CURVE_WITH_KNOTS('',3,(#929,#930,#931,#932,#933,#934,#935,
#936),.UNSPECIFIED.,.F.,.F.,(4,2,2,4),(-0.301194183962011,-0.220672930197655,
-0.110336465098828,-0.0813963724505378),.UNSPECIFIED.);
#151=B_SPLINE_CURVE_WITH_KNOTS('',3,(#937,#938,#939,#940,#941,#942,#943,
#944,#945,#946,#947,#948,#949,#950,#951,#952,#953,#954,#955,#956,#957,#958,
#959,#960,#961,#962,#963,#964,#965,#966,#967,#968,#969,#970),
 .UNSPECIFIED.,.F.,.F.,(4,3,3,3,3,3,3,3,3,3,3,4),(0.,0.1428571428571,0.27280146766139,
0.2857142857143,0.408636295367026,0.4285714285714,0.542700492108023,0.5714285714286,
0.7142857142857,0.831173148752526,0.8571428571429,1.),.UNSPECIFIED.);
#152=B_SPLINE_CURVE_WITH_KNOTS('',3,(#974,#975,#976,#977,#978,#979,#980,
#981),.UNSPECIFIED.,.F.,.F.,(4,2,2,4),(0.0789581531335626,0.109511737967098,
0.219023475934195,0.303902368571745),.UNSPECIFIED.);
#153=B_SPLINE_CURVE_WITH_KNOTS('',3,(#991,#992,#993,#994,#995,#996,#997,
#998),.UNSPECIFIED.,.F.,.F.,(4,2,2,4),(0.514029581104635,0.581557228656229,
0.62010283886517,0.658648449074112),.UNSPECIFIED.);
#154=B_SPLINE_CURVE_WITH_KNOTS('',3,(#1000,#1001,#1002,#1003,#1004,#1005,
#1006,#1007),.UNSPECIFIED.,.F.,.F.,(4,2,2,4),(0.,0.144418292739454,0.288836585478909,
0.380658209451623),.UNSPECIFIED.);
#155=B_SPLINE_CURVE_WITH_KNOTS('',3,(#1011,#1012,#1013,#1014,#1015,#1016,
#1017,#1018),.UNSPECIFIED.,.F.,.F.,(4,2,2,4),(0.698722821495616,0.754981844037986,
0.89940013677744,1.04381842951689),.UNSPECIFIED.);
#156=B_SPLINE_CURVE_WITH_KNOTS('',3,(#1022,#1023,#1024,#1025,#1026,#1027,
#1028,#1029),.UNSPECIFIED.,.F.,.F.,(4,2,2,4),(0.,0.144418292739454,0.288836585478909,
0.345084091952972),.UNSPECIFIED.);
#157=B_SPLINE_CURVE_WITH_KNOTS('',3,(#1033,#1034,#1035,#1036,#1037,#1038,
#1039,#1040),.UNSPECIFIED.,.F.,.F.,(4,2,2,4),(0.663160220066435,0.754981844037986,
0.89940013677744,1.04381842951689),.UNSPECIFIED.);
#158=B_SPLINE_CURVE_WITH_KNOTS('',3,(#1041,#1042,#1043,#1044,#1045,#1046,
#1047,#1048),.UNSPECIFIED.,.F.,.F.,(4,2,2,4),(0.658648449074112,0.697194059283053,
0.735739669491994,0.803267317044756),.UNSPECIFIED.);
#159=LINE('',#927,#205);
#160=LINE('',#984,#206);
#161=LINE('',#989,#207);
#162=LINE('',#1051,#208);
#163=LINE('',#1052,#209);
#164=LINE('',#1054,#210);
#165=LINE('',#1056,#211);
#166=LINE('',#1058,#212);
#167=LINE('',#1060,#213);
#168=LINE('',#1062,#214);
#169=LINE('',#1064,#215);
#170=LINE('',#1065,#216);
#171=LINE('',#1068,#217);
#172=LINE('',#1074,#218);
#173=LINE('',#1075,#219);
#174=LINE('',#1078,#220);
#175=LINE('',#1085,#221);
#176=LINE('',#1087,#222);
#177=LINE('',#1089,#223);
#178=LINE('',#1090,#224);
#179=LINE('',#1094,#225);
#180=LINE('',#1101,#226);
#181=LINE('',#1104,#227);
#182=LINE('',#1114,#228);
#183=LINE('',#1118,#229);
#184=LINE('',#1122,#230);
#185=LINE('',#1129,#231);
#186=LINE('',#1135,#232);
#187=LINE('',#1139,#233);
#188=LINE('',#1144,#234);
#189=LINE('',#1146,#235);
#190=LINE('',#1153,#236);
#191=LINE('',#1155,#237);
#192=LINE('',#1157,#238);
#193=LINE('',#1159,#239);
#194=LINE('',#1161,#240);
#195=LINE('',#1164,#241);
#196=LINE('',#1169,#242);
#197=LINE('',#1173,#243);
#198=LINE('',#1174,#244);
#199=LINE('',#1179,#245);
#200=LINE('',#1182,#246);
#201=LINE('',#1187,#247);
#202=LINE('',#1192,#248);
#203=LINE('',#1196,#249);
#204=LINE('',#1201,#250);
#205=VECTOR('',#735,1.043477036028);
#206=VECTOR('',#740,1.018889874058);
#207=VECTOR('',#745,2.);
#208=VECTOR('',#754,12.0073340170201);
#209=VECTOR('',#755,1.24300127438006);
#210=VECTOR('',#756,1.103308606431);
#211=VECTOR('',#757,0.630618569533921);
#212=VECTOR('',#758,7.7915038493847);
#213=VECTOR('',#759,18.);
#214=VECTOR('',#760,7.79150384939727);
#215=VECTOR('',#761,9.99999999999999);
#216=VECTOR('',#762,12.0073340170201);
#217=VECTOR('',#765,2.);
#218=VECTOR('',#772,2.);
#219=VECTOR('',#773,0.1);
#220=VECTOR('',#776,12.22396750532);
#221=VECTOR('',#783,18.);
#222=VECTOR('',#784,20.4);
#223=VECTOR('',#785,18.);
#224=VECTOR('',#786,20.4);
#225=VECTOR('',#789,0.4391195669757);
#226=VECTOR('',#800,1.284208956964);
#227=VECTOR('',#803,7.287137391535);
#228=VECTOR('',#814,6.71844726540495);
#229=VECTOR('',#817,4.6);
#230=VECTOR('',#822,5.44385889303);
#231=VECTOR('',#829,18.);
#232=VECTOR('',#836,4.6);
#233=VECTOR('',#839,6.71844726540795);
#234=VECTOR('',#844,7.287137391539);
#235=VECTOR('',#845,5.44385889303);
#236=VECTOR('',#854,18.);
#237=VECTOR('',#857,18.);
#238=VECTOR('',#860,18.);
#239=VECTOR('',#863,0.8461841355978);
#240=VECTOR('',#866,10.);
#241=VECTOR('',#869,12.22396750532);
#242=VECTOR('',#876,1.999999999998);
#243=VECTOR('',#881,1.999999999998);
#244=VECTOR('',#882,0.1);
#245=VECTOR('',#891,1.95202171305);
#246=VECTOR('',#896,18.);
#247=VECTOR('',#903,1.5);
#248=VECTOR('',#910,2.05);
#249=VECTOR('',#915,1.5);
#250=VECTOR('',#922,2.05);
#251=VERTEX_POINT('',#925);
#252=VERTEX_POINT('',#926);
#253=VERTEX_POINT('',#928);
#254=VERTEX_POINT('',#972);
#255=VERTEX_POINT('',#973);
#256=VERTEX_POINT('',#982);
#257=VERTEX_POINT('',#986);
#258=VERTEX_POINT('',#988);
#259=VERTEX_POINT('',#990);
#260=VERTEX_POINT('',#999);
#261=VERTEX_POINT('',#1008);
#262=VERTEX_POINT('',#1010);
#263=VERTEX_POINT('',#1019);
#264=VERTEX_POINT('',#1021);
#265=VERTEX_POINT('',#1030);
#266=VERTEX_POINT('',#1032);
#267=VERTEX_POINT('',#1050);
#268=VERTEX_POINT('',#1053);
#269=VERTEX_POINT('',#1055);
#270=VERTEX_POINT('',#1057);
#271=VERTEX_POINT('',#1059);
#272=VERTEX_POINT('',#1061);
#273=VERTEX_POINT('',#1063);
#274=VERTEX_POINT('',#1067);
#275=VERTEX_POINT('',#1069);
#276=VERTEX_POINT('',#1073);
#277=VERTEX_POINT('',#1077);
#278=VERTEX_POINT('',#1079);
#279=VERTEX_POINT('',#1083);
#280=VERTEX_POINT('',#1084);
#281=VERTEX_POINT('',#1086);
#282=VERTEX_POINT('',#1088);
#283=VERTEX_POINT('',#1092);
#284=VERTEX_POINT('',#1093);
#285=VERTEX_POINT('',#1098);
#286=VERTEX_POINT('',#1103);
#287=VERTEX_POINT('',#1107);
#288=VERTEX_POINT('',#1109);
#289=VERTEX_POINT('',#1111);
#290=VERTEX_POINT('',#1113);
#291=VERTEX_POINT('',#1115);
#292=VERTEX_POINT('',#1117);
#293=VERTEX_POINT('',#1120);
#294=VERTEX_POINT('',#1123);
#295=VERTEX_POINT('',#1125);
#296=VERTEX_POINT('',#1128);
#297=VERTEX_POINT('',#1132);
#298=VERTEX_POINT('',#1134);
#299=VERTEX_POINT('',#1136);
#300=VERTEX_POINT('',#1138);
#301=VERTEX_POINT('',#1140);
#302=VERTEX_POINT('',#1142);
#303=VERTEX_POINT('',#1145);
#304=VERTEX_POINT('',#1148);
#305=VERTEX_POINT('',#1150);
#306=VERTEX_POINT('',#1163);
#307=VERTEX_POINT('',#1168);
#308=VERTEX_POINT('',#1172);
#309=VERTEX_POINT('',#1185);
#310=VERTEX_POINT('',#1189);
#311=VERTEX_POINT('',#1194);
#312=VERTEX_POINT('',#1198);
#313=EDGE_CURVE('',#251,#252,#159,.T.);
#314=EDGE_CURVE('',#253,#252,#150,.T.);
#315=EDGE_CURVE('',#253,#251,#151,.T.);
#316=EDGE_CURVE('',#254,#255,#152,.T.);
#317=EDGE_CURVE('',#256,#255,#65,.T.);
#318=EDGE_CURVE('',#256,#254,#160,.T.);
#319=EDGE_CURVE('',#257,#257,#37,.T.);
#320=EDGE_CURVE('',#257,#258,#161,.T.);
#321=EDGE_CURVE('',#259,#258,#153,.T.);
#322=EDGE_CURVE('',#260,#259,#154,.T.);
#323=EDGE_CURVE('',#261,#260,#38,.T.);
#324=EDGE_CURVE('',#262,#261,#155,.T.);
#325=EDGE_CURVE('',#263,#262,#66,.T.);
#326=EDGE_CURVE('',#264,#263,#156,.T.);
#327=EDGE_CURVE('',#265,#264,#39,.T.);
#328=EDGE_CURVE('',#266,#265,#157,.T.);
#329=EDGE_CURVE('',#258,#266,#158,.T.);
#330=EDGE_CURVE('',#262,#267,#162,.T.);
#331=EDGE_CURVE('',#256,#267,#163,.T.);
#332=EDGE_CURVE('',#268,#255,#164,.T.);
#333=EDGE_CURVE('',#268,#269,#165,.T.);
#334=EDGE_CURVE('',#270,#269,#166,.T.);
#335=EDGE_CURVE('',#271,#270,#167,.T.);
#336=EDGE_CURVE('',#272,#271,#168,.T.);
#337=EDGE_CURVE('',#272,#273,#169,.T.);
#338=EDGE_CURVE('',#273,#263,#170,.T.);
#339=EDGE_CURVE('',#261,#274,#171,.T.);
#340=EDGE_CURVE('',#274,#275,#67,.T.);
#341=EDGE_CURVE('',#267,#275,#40,.T.);
#342=EDGE_CURVE('',#276,#260,#172,.T.);
#343=EDGE_CURVE('',#274,#276,#173,.T.);
#344=EDGE_CURVE('',#259,#277,#174,.T.);
#345=EDGE_CURVE('',#278,#277,#41,.T.);
#346=EDGE_CURVE('',#276,#278,#68,.T.);
#347=EDGE_CURVE('',#279,#280,#175,.T.);
#348=EDGE_CURVE('',#279,#281,#176,.T.);
#349=EDGE_CURVE('',#282,#281,#177,.T.);
#350=EDGE_CURVE('',#282,#280,#178,.T.);
#351=EDGE_CURVE('',#283,#284,#179,.T.);
#352=EDGE_CURVE('',#268,#283,#69,.T.);
#353=EDGE_CURVE('',#284,#254,#42,.T.);
#354=EDGE_CURVE('',#285,#283,#70,.T.);
#355=EDGE_CURVE('',#251,#284,#43,.T.);
#356=EDGE_CURVE('',#285,#253,#180,.T.);
#357=EDGE_CURVE('',#269,#286,#181,.T.);
#358=EDGE_CURVE('',#286,#285,#71,.T.);
#359=EDGE_CURVE('',#287,#270,#44,.T.);
#360=EDGE_CURVE('',#286,#288,#45,.T.);
#361=EDGE_CURVE('',#288,#289,#46,.T.);
#362=EDGE_CURVE('',#289,#290,#182,.T.);
#363=EDGE_CURVE('',#290,#291,#47,.T.);
#364=EDGE_CURVE('',#291,#292,#183,.T.);
#365=EDGE_CURVE('',#292,#280,#48,.T.);
#366=EDGE_CURVE('',#282,#293,#49,.T.);
#367=EDGE_CURVE('',#293,#287,#184,.T.);
#368=EDGE_CURVE('',#294,#294,#50,.T.);
#369=EDGE_CURVE('',#295,#295,#51,.T.);
#370=EDGE_CURVE('',#287,#296,#185,.T.);
#371=EDGE_CURVE('',#271,#296,#52,.T.);
#372=EDGE_CURVE('',#279,#297,#53,.T.);
#373=EDGE_CURVE('',#297,#298,#186,.T.);
#374=EDGE_CURVE('',#298,#299,#54,.T.);
#375=EDGE_CURVE('',#299,#300,#187,.T.);
#376=EDGE_CURVE('',#300,#301,#55,.T.);
#377=EDGE_CURVE('',#301,#302,#56,.T.);
#378=EDGE_CURVE('',#302,#272,#188,.T.);
#379=EDGE_CURVE('',#296,#303,#189,.T.);
#380=EDGE_CURVE('',#303,#281,#57,.T.);
#381=EDGE_CURVE('',#304,#304,#58,.T.);
#382=EDGE_CURVE('',#305,#305,#59,.T.);
#383=EDGE_CURVE('',#292,#297,#190,.T.);
#384=EDGE_CURVE('',#298,#291,#191,.T.);
#385=EDGE_CURVE('',#290,#299,#192,.T.);
#386=EDGE_CURVE('',#300,#289,#193,.T.);
#387=EDGE_CURVE('',#301,#288,#194,.T.);
#388=EDGE_CURVE('',#306,#266,#195,.T.);
#389=EDGE_CURVE('',#306,#302,#72,.T.);
#390=EDGE_CURVE('',#277,#252,#60,.T.);
#391=EDGE_CURVE('',#265,#307,#196,.T.);
#392=EDGE_CURVE('',#306,#307,#73,.T.);
#393=EDGE_CURVE('',#308,#264,#197,.T.);
#394=EDGE_CURVE('',#307,#308,#198,.T.);
#395=EDGE_CURVE('',#273,#308,#74,.T.);
#396=EDGE_CURVE('',#275,#278,#199,.T.);
#397=EDGE_CURVE('',#303,#293,#200,.T.);
#398=EDGE_CURVE('',#309,#309,#61,.T.);
#399=EDGE_CURVE('',#309,#304,#201,.T.);
#400=EDGE_CURVE('',#310,#310,#62,.T.);
#401=EDGE_CURVE('',#295,#310,#202,.T.);
#402=EDGE_CURVE('',#311,#311,#63,.T.);
#403=EDGE_CURVE('',#311,#305,#203,.T.);
#404=EDGE_CURVE('',#312,#312,#64,.T.);
#405=EDGE_CURVE('',#294,#312,#204,.T.);
#406=ORIENTED_EDGE('',*,*,#313,.T.);
#407=ORIENTED_EDGE('',*,*,#314,.F.);
#408=ORIENTED_EDGE('',*,*,#315,.T.);
#409=ORIENTED_EDGE('',*,*,#316,.T.);
#410=ORIENTED_EDGE('',*,*,#317,.F.);
#411=ORIENTED_EDGE('',*,*,#318,.T.);
#412=ORIENTED_EDGE('',*,*,#319,.F.);
#413=ORIENTED_EDGE('',*,*,#320,.T.);
#414=ORIENTED_EDGE('',*,*,#321,.F.);
#415=ORIENTED_EDGE('',*,*,#322,.F.);
#416=ORIENTED_EDGE('',*,*,#323,.F.);
#417=ORIENTED_EDGE('',*,*,#324,.F.);
#418=ORIENTED_EDGE('',*,*,#325,.F.);
#419=ORIENTED_EDGE('',*,*,#326,.F.);
#420=ORIENTED_EDGE('',*,*,#327,.F.);
#421=ORIENTED_EDGE('',*,*,#328,.F.);
#422=ORIENTED_EDGE('',*,*,#329,.F.);
#423=ORIENTED_EDGE('',*,*,#320,.F.);
#424=ORIENTED_EDGE('',*,*,#325,.T.);
#425=ORIENTED_EDGE('',*,*,#330,.T.);
#426=ORIENTED_EDGE('',*,*,#331,.F.);
#427=ORIENTED_EDGE('',*,*,#317,.T.);
#428=ORIENTED_EDGE('',*,*,#332,.F.);
#429=ORIENTED_EDGE('',*,*,#333,.T.);
#430=ORIENTED_EDGE('',*,*,#334,.F.);
#431=ORIENTED_EDGE('',*,*,#335,.F.);
#432=ORIENTED_EDGE('',*,*,#336,.F.);
#433=ORIENTED_EDGE('',*,*,#337,.T.);
#434=ORIENTED_EDGE('',*,*,#338,.T.);
#435=ORIENTED_EDGE('',*,*,#324,.T.);
#436=ORIENTED_EDGE('',*,*,#339,.T.);
#437=ORIENTED_EDGE('',*,*,#340,.T.);
#438=ORIENTED_EDGE('',*,*,#341,.F.);
#439=ORIENTED_EDGE('',*,*,#330,.F.);
#440=ORIENTED_EDGE('',*,*,#323,.T.);
#441=ORIENTED_EDGE('',*,*,#342,.F.);
#442=ORIENTED_EDGE('',*,*,#343,.F.);
#443=ORIENTED_EDGE('',*,*,#339,.F.);
#444=ORIENTED_EDGE('',*,*,#322,.T.);
#445=ORIENTED_EDGE('',*,*,#344,.T.);
#446=ORIENTED_EDGE('',*,*,#345,.F.);
#447=ORIENTED_EDGE('',*,*,#346,.F.);
#448=ORIENTED_EDGE('',*,*,#342,.T.);
#449=ORIENTED_EDGE('',*,*,#347,.F.);
#450=ORIENTED_EDGE('',*,*,#348,.T.);
#451=ORIENTED_EDGE('',*,*,#349,.F.);
#452=ORIENTED_EDGE('',*,*,#350,.T.);
#453=ORIENTED_EDGE('',*,*,#319,.T.);
#454=ORIENTED_EDGE('',*,*,#351,.F.);
#455=ORIENTED_EDGE('',*,*,#352,.F.);
#456=ORIENTED_EDGE('',*,*,#332,.T.);
#457=ORIENTED_EDGE('',*,*,#316,.F.);
#458=ORIENTED_EDGE('',*,*,#353,.F.);
#459=ORIENTED_EDGE('',*,*,#354,.T.);
#460=ORIENTED_EDGE('',*,*,#351,.T.);
#461=ORIENTED_EDGE('',*,*,#355,.F.);
#462=ORIENTED_EDGE('',*,*,#315,.F.);
#463=ORIENTED_EDGE('',*,*,#356,.F.);
#464=ORIENTED_EDGE('',*,*,#357,.F.);
#465=ORIENTED_EDGE('',*,*,#333,.F.);
#466=ORIENTED_EDGE('',*,*,#352,.T.);
#467=ORIENTED_EDGE('',*,*,#354,.F.);
#468=ORIENTED_EDGE('',*,*,#358,.F.);
#469=ORIENTED_EDGE('',*,*,#359,.T.);
#470=ORIENTED_EDGE('',*,*,#334,.T.);
#471=ORIENTED_EDGE('',*,*,#357,.T.);
#472=ORIENTED_EDGE('',*,*,#360,.T.);
#473=ORIENTED_EDGE('',*,*,#361,.T.);
#474=ORIENTED_EDGE('',*,*,#362,.T.);
#475=ORIENTED_EDGE('',*,*,#363,.T.);
#476=ORIENTED_EDGE('',*,*,#364,.T.);
#477=ORIENTED_EDGE('',*,*,#365,.T.);
#478=ORIENTED_EDGE('',*,*,#350,.F.);
#479=ORIENTED_EDGE('',*,*,#366,.T.);
#480=ORIENTED_EDGE('',*,*,#367,.T.);
#481=ORIENTED_EDGE('',*,*,#368,.T.);
#482=ORIENTED_EDGE('',*,*,#369,.T.);
#483=ORIENTED_EDGE('',*,*,#359,.F.);
#484=ORIENTED_EDGE('',*,*,#370,.T.);
#485=ORIENTED_EDGE('',*,*,#371,.F.);
#486=ORIENTED_EDGE('',*,*,#335,.T.);
#487=ORIENTED_EDGE('',*,*,#372,.T.);
#488=ORIENTED_EDGE('',*,*,#373,.T.);
#489=ORIENTED_EDGE('',*,*,#374,.T.);
#490=ORIENTED_EDGE('',*,*,#375,.T.);
#491=ORIENTED_EDGE('',*,*,#376,.T.);
#492=ORIENTED_EDGE('',*,*,#377,.T.);
#493=ORIENTED_EDGE('',*,*,#378,.T.);
#494=ORIENTED_EDGE('',*,*,#336,.T.);
#495=ORIENTED_EDGE('',*,*,#371,.T.);
#496=ORIENTED_EDGE('',*,*,#379,.T.);
#497=ORIENTED_EDGE('',*,*,#380,.T.);
#498=ORIENTED_EDGE('',*,*,#348,.F.);
#499=ORIENTED_EDGE('',*,*,#381,.T.);
#500=ORIENTED_EDGE('',*,*,#382,.T.);
#501=ORIENTED_EDGE('',*,*,#365,.F.);
#502=ORIENTED_EDGE('',*,*,#383,.T.);
#503=ORIENTED_EDGE('',*,*,#372,.F.);
#504=ORIENTED_EDGE('',*,*,#347,.T.);
#505=ORIENTED_EDGE('',*,*,#384,.F.);
#506=ORIENTED_EDGE('',*,*,#373,.F.);
#507=ORIENTED_EDGE('',*,*,#383,.F.);
#508=ORIENTED_EDGE('',*,*,#364,.F.);
#509=ORIENTED_EDGE('',*,*,#374,.F.);
#510=ORIENTED_EDGE('',*,*,#384,.T.);
#511=ORIENTED_EDGE('',*,*,#363,.F.);
#512=ORIENTED_EDGE('',*,*,#385,.T.);
#513=ORIENTED_EDGE('',*,*,#386,.F.);
#514=ORIENTED_EDGE('',*,*,#375,.F.);
#515=ORIENTED_EDGE('',*,*,#385,.F.);
#516=ORIENTED_EDGE('',*,*,#362,.F.);
#517=ORIENTED_EDGE('',*,*,#386,.T.);
#518=ORIENTED_EDGE('',*,*,#361,.F.);
#519=ORIENTED_EDGE('',*,*,#387,.F.);
#520=ORIENTED_EDGE('',*,*,#376,.F.);
#521=ORIENTED_EDGE('',*,*,#321,.T.);
#522=ORIENTED_EDGE('',*,*,#329,.T.);
#523=ORIENTED_EDGE('',*,*,#388,.F.);
#524=ORIENTED_EDGE('',*,*,#389,.T.);
#525=ORIENTED_EDGE('',*,*,#377,.F.);
#526=ORIENTED_EDGE('',*,*,#387,.T.);
#527=ORIENTED_EDGE('',*,*,#360,.F.);
#528=ORIENTED_EDGE('',*,*,#358,.T.);
#529=ORIENTED_EDGE('',*,*,#356,.T.);
#530=ORIENTED_EDGE('',*,*,#314,.T.);
#531=ORIENTED_EDGE('',*,*,#390,.F.);
#532=ORIENTED_EDGE('',*,*,#344,.F.);
#533=ORIENTED_EDGE('',*,*,#328,.T.);
#534=ORIENTED_EDGE('',*,*,#391,.T.);
#535=ORIENTED_EDGE('',*,*,#392,.F.);
#536=ORIENTED_EDGE('',*,*,#388,.T.);
#537=ORIENTED_EDGE('',*,*,#327,.T.);
#538=ORIENTED_EDGE('',*,*,#393,.F.);
#539=ORIENTED_EDGE('',*,*,#394,.F.);
#540=ORIENTED_EDGE('',*,*,#391,.F.);
#541=ORIENTED_EDGE('',*,*,#394,.T.);
#542=ORIENTED_EDGE('',*,*,#395,.F.);
#543=ORIENTED_EDGE('',*,*,#337,.F.);
#544=ORIENTED_EDGE('',*,*,#378,.F.);
#545=ORIENTED_EDGE('',*,*,#389,.F.);
#546=ORIENTED_EDGE('',*,*,#392,.T.);
#547=ORIENTED_EDGE('',*,*,#326,.T.);
#548=ORIENTED_EDGE('',*,*,#338,.F.);
#549=ORIENTED_EDGE('',*,*,#395,.T.);
#550=ORIENTED_EDGE('',*,*,#393,.T.);
#551=ORIENTED_EDGE('',*,*,#341,.T.);
#552=ORIENTED_EDGE('',*,*,#396,.T.);
#553=ORIENTED_EDGE('',*,*,#345,.T.);
#554=ORIENTED_EDGE('',*,*,#390,.T.);
#555=ORIENTED_EDGE('',*,*,#313,.F.);
#556=ORIENTED_EDGE('',*,*,#355,.T.);
#557=ORIENTED_EDGE('',*,*,#353,.T.);
#558=ORIENTED_EDGE('',*,*,#318,.F.);
#559=ORIENTED_EDGE('',*,*,#331,.T.);
#560=ORIENTED_EDGE('',*,*,#343,.T.);
#561=ORIENTED_EDGE('',*,*,#346,.T.);
#562=ORIENTED_EDGE('',*,*,#396,.F.);
#563=ORIENTED_EDGE('',*,*,#340,.F.);
#564=ORIENTED_EDGE('',*,*,#366,.F.);
#565=ORIENTED_EDGE('',*,*,#349,.T.);
#566=ORIENTED_EDGE('',*,*,#380,.F.);
#567=ORIENTED_EDGE('',*,*,#397,.T.);
#568=ORIENTED_EDGE('',*,*,#370,.F.);
#569=ORIENTED_EDGE('',*,*,#367,.F.);
#570=ORIENTED_EDGE('',*,*,#397,.F.);
#571=ORIENTED_EDGE('',*,*,#379,.F.);
#572=ORIENTED_EDGE('',*,*,#398,.F.);
#573=ORIENTED_EDGE('',*,*,#399,.T.);
#574=ORIENTED_EDGE('',*,*,#381,.F.);
#575=ORIENTED_EDGE('',*,*,#399,.F.);
#576=ORIENTED_EDGE('',*,*,#400,.T.);
#577=ORIENTED_EDGE('',*,*,#398,.T.);
#578=ORIENTED_EDGE('',*,*,#369,.F.);
#579=ORIENTED_EDGE('',*,*,#401,.T.);
#580=ORIENTED_EDGE('',*,*,#400,.F.);
#581=ORIENTED_EDGE('',*,*,#401,.F.);
#582=ORIENTED_EDGE('',*,*,#402,.F.);
#583=ORIENTED_EDGE('',*,*,#403,.T.);
#584=ORIENTED_EDGE('',*,*,#382,.F.);
#585=ORIENTED_EDGE('',*,*,#403,.F.);
#586=ORIENTED_EDGE('',*,*,#404,.T.);
#587=ORIENTED_EDGE('',*,*,#402,.T.);
#588=ORIENTED_EDGE('',*,*,#368,.F.);
#589=ORIENTED_EDGE('',*,*,#405,.T.);
#590=ORIENTED_EDGE('',*,*,#404,.F.);
#591=ORIENTED_EDGE('',*,*,#405,.F.);
#592=CYLINDRICAL_SURFACE('',#659,2.85);
#593=CYLINDRICAL_SURFACE('',#660,2.85);
#594=CYLINDRICAL_SURFACE('',#662,2.);
#595=CYLINDRICAL_SURFACE('',#668,4.7);
#596=CYLINDRICAL_SURFACE('',#672,4.7);
#597=CYLINDRICAL_SURFACE('',#676,5.75);
#598=CYLINDRICAL_SURFACE('',#679,5.75);
#599=CYLINDRICAL_SURFACE('',#693,8.);
#600=CYLINDRICAL_SURFACE('',#703,2.);
#601=CYLINDRICAL_SURFACE('',#705,4.);
#602=CYLINDRICAL_SURFACE('',#707,3.);
#603=CYLINDRICAL_SURFACE('',#708,8.);
#604=CYLINDRICAL_SURFACE('',#711,4.7);
#605=CYLINDRICAL_SURFACE('',#716,4.7);
#606=CYLINDRICAL_SURFACE('',#719,2.);
#607=CYLINDRICAL_SURFACE('',#721,1.55);
#608=CYLINDRICAL_SURFACE('',#725,2.05);
#609=CYLINDRICAL_SURFACE('',#726,1.55);
#610=CYLINDRICAL_SURFACE('',#730,2.05);
#611=ADVANCED_FACE('',(#75),#592,.T.);
#612=ADVANCED_FACE('',(#76),#593,.T.);
#613=ADVANCED_FACE('',(#77),#594,.F.);
#614=ADVANCED_FACE('',(#78),#22,.T.);
#615=ADVANCED_FACE('',(#79),#595,.F.);
#616=ADVANCED_FACE('',(#80),#23,.T.);
#617=ADVANCED_FACE('',(#81),#596,.F.);
#618=ADVANCED_FACE('',(#82,#15),#24,.T.);
#619=ADVANCED_FACE('',(#83),#597,.F.);
#620=ADVANCED_FACE('',(#84),#598,.F.);
#621=ADVANCED_FACE('',(#85),#25,.F.);
#622=ADVANCED_FACE('',(#86,#16,#17),#26,.F.);
#623=ADVANCED_FACE('',(#87),#599,.T.);
#624=ADVANCED_FACE('',(#88,#18,#19),#27,.T.);
#625=ADVANCED_FACE('',(#89),#600,.T.);
#626=ADVANCED_FACE('',(#90),#28,.T.);
#627=ADVANCED_FACE('',(#91),#601,.T.);
#628=ADVANCED_FACE('',(#92),#29,.T.);
#629=ADVANCED_FACE('',(#93),#602,.F.);
#630=ADVANCED_FACE('',(#94),#603,.T.);
#631=ADVANCED_FACE('',(#95),#604,.F.);
#632=ADVANCED_FACE('',(#96),#30,.T.);
#633=ADVANCED_FACE('',(#97),#31,.F.);
#634=ADVANCED_FACE('',(#98),#605,.F.);
#635=ADVANCED_FACE('',(#99),#32,.T.);
#636=ADVANCED_FACE('',(#100),#33,.F.);
#637=ADVANCED_FACE('',(#101),#606,.T.);
#638=ADVANCED_FACE('',(#102),#34,.T.);
#639=ADVANCED_FACE('',(#103),#607,.F.);
#640=ADVANCED_FACE('',(#104,#20),#35,.T.);
#641=ADVANCED_FACE('',(#105),#608,.F.);
#642=ADVANCED_FACE('',(#106),#609,.F.);
#643=ADVANCED_FACE('',(#107,#21),#36,.T.);
#644=ADVANCED_FACE('',(#108),#610,.F.);
#645=CLOSED_SHELL('',(#611,#612,#613,#614,#615,#616,#617,#618,#619,#620,
#621,#622,#623,#624,#625,#626,#627,#628,#629,#630,#631,#632,#633,#634,#635,
#636,#637,#638,#639,#640,#641,#642,#643,#644));
#646=DERIVED_UNIT_ELEMENT(#648,1.);
#647=DERIVED_UNIT_ELEMENT(#1207,-3.);
#648=(
MASS_UNIT()
NAMED_UNIT(*)
SI_UNIT(.KILO.,.GRAM.)
);
#649=DERIVED_UNIT((#646,#647));
#650=MEASURE_REPRESENTATION_ITEM('density measure',
POSITIVE_RATIO_MEASURE(7850.),#649);
#651=PROPERTY_DEFINITION_REPRESENTATION(#656,#653);
#652=PROPERTY_DEFINITION_REPRESENTATION(#657,#654);
#653=REPRESENTATION('material name',(#655),#1204);
#654=REPRESENTATION('density',(#650),#1204);
#655=DESCRIPTIVE_REPRESENTATION_ITEM('Steel','Steel');
#656=PROPERTY_DEFINITION('material property','material name',#1214);
#657=PROPERTY_DEFINITION('material property','density of part',#1214);
#658=AXIS2_PLACEMENT_3D('placement',#923,#731,#732);
#659=AXIS2_PLACEMENT_3D('',#924,#733,#734);
#660=AXIS2_PLACEMENT_3D('',#971,#736,#737);
#661=AXIS2_PLACEMENT_3D('',#983,#738,#739);
#662=AXIS2_PLACEMENT_3D('',#985,#741,#742);
#663=AXIS2_PLACEMENT_3D('',#987,#743,#744);
#664=AXIS2_PLACEMENT_3D('',#1009,#746,#747);
#665=AXIS2_PLACEMENT_3D('',#1020,#748,#749);
#666=AXIS2_PLACEMENT_3D('',#1031,#750,#751);
#667=AXIS2_PLACEMENT_3D('',#1049,#752,#753);
#668=AXIS2_PLACEMENT_3D('',#1066,#763,#764);
#669=AXIS2_PLACEMENT_3D('',#1070,#766,#767);
#670=AXIS2_PLACEMENT_3D('',#1071,#768,#769);
#671=AXIS2_PLACEMENT_3D('',#1072,#770,#771);
#672=AXIS2_PLACEMENT_3D('',#1076,#774,#775);
#673=AXIS2_PLACEMENT_3D('',#1080,#777,#778);
#674=AXIS2_PLACEMENT_3D('',#1081,#779,#780);
#675=AXIS2_PLACEMENT_3D('',#1082,#781,#782);
#676=AXIS2_PLACEMENT_3D('',#1091,#787,#788);
#677=AXIS2_PLACEMENT_3D('',#1095,#790,#791);
#678=AXIS2_PLACEMENT_3D('',#1096,#792,#793);
#679=AXIS2_PLACEMENT_3D('',#1097,#794,#795);
#680=AXIS2_PLACEMENT_3D('',#1099,#796,#797);
#681=AXIS2_PLACEMENT_3D('',#1100,#798,#799);
#682=AXIS2_PLACEMENT_3D('',#1102,#801,#802);
#683=AXIS2_PLACEMENT_3D('',#1105,#804,#805);
#684=AXIS2_PLACEMENT_3D('',#1106,#806,#807);
#685=AXIS2_PLACEMENT_3D('',#1108,#808,#809);
#686=AXIS2_PLACEMENT_3D('',#1110,#810,#811);
#687=AXIS2_PLACEMENT_3D('',#1112,#812,#813);
#688=AXIS2_PLACEMENT_3D('',#1116,#815,#816);
#689=AXIS2_PLACEMENT_3D('',#1119,#818,#819);
#690=AXIS2_PLACEMENT_3D('',#1121,#820,#821);
#691=AXIS2_PLACEMENT_3D('',#1124,#823,#824);
#692=AXIS2_PLACEMENT_3D('',#1126,#825,#826);
#693=AXIS2_PLACEMENT_3D('',#1127,#827,#828);
#694=AXIS2_PLACEMENT_3D('',#1130,#830,#831);
#695=AXIS2_PLACEMENT_3D('',#1131,#832,#833);
#696=AXIS2_PLACEMENT_3D('',#1133,#834,#835);
#697=AXIS2_PLACEMENT_3D('',#1137,#837,#838);
#698=AXIS2_PLACEMENT_3D('',#1141,#840,#841);
#699=AXIS2_PLACEMENT_3D('',#1143,#842,#843);
#700=AXIS2_PLACEMENT_3D('',#1147,#846,#847);
#701=AXIS2_PLACEMENT_3D('',#1149,#848,#849);
#702=AXIS2_PLACEMENT_3D('',#1151,#850,#851);
#703=AXIS2_PLACEMENT_3D('',#1152,#852,#853);
#704=AXIS2_PLACEMENT_3D('',#1154,#855,#856);
#705=AXIS2_PLACEMENT_3D('',#1156,#858,#859);
#706=AXIS2_PLACEMENT_3D('',#1158,#861,#862);
#707=AXIS2_PLACEMENT_3D('',#1160,#864,#865);
#708=AXIS2_PLACEMENT_3D('',#1162,#867,#868);
#709=AXIS2_PLACEMENT_3D('',#1165,#870,#871);
#710=AXIS2_PLACEMENT_3D('',#1166,#872,#873);
#711=AXIS2_PLACEMENT_3D('',#1167,#874,#875);
#712=AXIS2_PLACEMENT_3D('',#1170,#877,#878);
#713=AXIS2_PLACEMENT_3D('',#1171,#879,#880);
#714=AXIS2_PLACEMENT_3D('',#1175,#883,#884);
#715=AXIS2_PLACEMENT_3D('',#1176,#885,#886);
#716=AXIS2_PLACEMENT_3D('',#1177,#887,#888);
#717=AXIS2_PLACEMENT_3D('',#1178,#889,#890);
#718=AXIS2_PLACEMENT_3D('',#1180,#892,#893);
#719=AXIS2_PLACEMENT_3D('',#1181,#894,#895);
#720=AXIS2_PLACEMENT_3D('',#1183,#897,#898);
#721=AXIS2_PLACEMENT_3D('',#1184,#899,#900);
#722=AXIS2_PLACEMENT_3D('',#1186,#901,#902);
#723=AXIS2_PLACEMENT_3D('',#1188,#904,#905);
#724=AXIS2_PLACEMENT_3D('',#1190,#906,#907);
#725=AXIS2_PLACEMENT_3D('',#1191,#908,#909);
#726=AXIS2_PLACEMENT_3D('',#1193,#911,#912);
#727=AXIS2_PLACEMENT_3D('',#1195,#913,#914);
#728=AXIS2_PLACEMENT_3D('',#1197,#916,#917);
#729=AXIS2_PLACEMENT_3D('',#1199,#918,#919);
#730=AXIS2_PLACEMENT_3D('',#1200,#920,#921);
#731=DIRECTION('axis',(0.,0.,1.));
#732=DIRECTION('refdir',(1.,0.,0.));
#733=DIRECTION('center_axis',(0.,1.,0.));
#734=DIRECTION('ref_axis',(1.,0.,0.));
#735=DIRECTION('',(1.021406381589E-14,1.,0.));
#736=DIRECTION('center_axis',(0.,1.,0.));
#737=DIRECTION('ref_axis',(-1.,0.,0.));
#738=DIRECTION('center_axis',(0.730636520423882,0.682766632915583,0.));
#739=DIRECTION('ref_axis',(-0.682766632915583,0.730636520423882,0.));
#740=DIRECTION('',(4.491059666803E-12,-1.,1.656252594512E-14));
#741=DIRECTION('center_axis',(0.,1.,0.));
#742=DIRECTION('ref_axis',(1.,0.,0.));
#743=DIRECTION('center_axis',(0.,1.,0.));
#744=DIRECTION('ref_axis',(0.,0.,-1.));
#745=DIRECTION('',(0.,1.,0.));
#746=DIRECTION('center_axis',(0.,-1.,0.));
#747=DIRECTION('ref_axis',(1.,0.,0.));
#748=DIRECTION('center_axis',(-0.730636520423882,-0.682766632915583,0.));
#749=DIRECTION('ref_axis',(0.682766632915583,-0.730636520423882,0.));
#750=DIRECTION('center_axis',(0.,-1.,0.));
#751=DIRECTION('ref_axis',(1.,0.,0.));
#752=DIRECTION('center_axis',(0.730636520423882,0.682766632915583,0.));
#753=DIRECTION('ref_axis',(-0.682766632915583,0.730636520423882,0.));
#754=DIRECTION('',(2.43320114803998E-5,-2.60378934027398E-5,0.999999999364991));
#755=DIRECTION('',(-0.682766629667169,0.730636523459467,-1.03608800337495E-14));
#756=DIRECTION('',(9.016152183227E-14,-1.561726360309E-13,-1.));
#757=DIRECTION('',(0.551294568646481,-0.58994673428228,0.58994673428248));
#758=DIRECTION('',(-0.682766632915426,0.730636520424028,0.));
#759=DIRECTION('',(-5.052748343183E-13,5.990270008422E-13,1.));
#760=DIRECTION('',(0.682766632915376,-0.730636520424075,-3.64778224842987E-14));
#761=DIRECTION('',(-0.551294568647505,0.589946734281901,0.589946734281901));
#762=DIRECTION('',(2.43320114803998E-5,-2.60378934027398E-5,0.999999999364991));
#763=DIRECTION('center_axis',(0.,0.,-1.));
#764=DIRECTION('ref_axis',(-1.,0.,0.));
#765=DIRECTION('',(0.,-7.312668988865E-14,1.));
#766=DIRECTION('center_axis',(0.,0.707106781186598,0.707106781186498));
#767=DIRECTION('ref_axis',(0.,0.707106781186498,-0.707106781186597));
#768=DIRECTION('center_axis',(0.,0.,-1.));
#769=DIRECTION('ref_axis',(-0.730636534728279,-0.682766617608281,0.));
#770=DIRECTION('center_axis',(0.,1.,0.));
#771=DIRECTION('ref_axis',(-1.,0.,0.));
#772=DIRECTION('',(0.,7.889984961671E-14,-1.));
#773=DIRECTION('',(-1.,-3.323440784765E-13,-3.81916720471E-13));
#774=DIRECTION('center_axis',(0.,0.,-1.));
#775=DIRECTION('ref_axis',(-1.,0.,0.));
#776=DIRECTION('',(-2.51050575389E-12,-2.480788317755E-12,1.));
#777=DIRECTION('center_axis',(0.,0.,-1.));
#778=DIRECTION('ref_axis',(0.802976413505291,-0.596010804729394,0.));
#779=DIRECTION('center_axis',(0.,-0.707106781186598,-0.707106781186498));
#780=DIRECTION('ref_axis',(0.,0.707106781186498,-0.707106781186597));
#781=DIRECTION('center_axis',(0.,-1.,0.));
#782=DIRECTION('ref_axis',(1.,0.,0.));
#783=DIRECTION('',(0.,0.,1.));
#784=DIRECTION('',(1.,0.,0.));
#785=DIRECTION('',(0.,0.,-1.));
#786=DIRECTION('',(-1.,0.,0.));
#787=DIRECTION('center_axis',(0.,0.,1.));
#788=DIRECTION('ref_axis',(1.,0.,0.));
#789=DIRECTION('',(0.,-1.415844204056E-14,-1.));
#790=DIRECTION('center_axis',(0.,-0.707106781186598,-0.707106781186498));
#791=DIRECTION('ref_axis',(0.,0.707106781186498,-0.707106781186598));
#792=DIRECTION('center_axis',(0.,0.,1.));
#793=DIRECTION('ref_axis',(-0.826086956521713,-0.563542669426809,0.));
#794=DIRECTION('center_axis',(0.,0.,1.));
#795=DIRECTION('ref_axis',(1.,0.,0.));
#796=DIRECTION('center_axis',(0.,0.707106781186598,0.707106781186498));
#797=DIRECTION('ref_axis',(0.,0.707106781186498,-0.707106781186598));
#798=DIRECTION('center_axis',(0.,0.,1.));
#799=DIRECTION('ref_axis',(0.449637543185696,-0.893211105930693,0.));
#800=DIRECTION('',(3.319752904261E-14,0.,-1.));
#801=DIRECTION('center_axis',(0.,-0.707106781186598,-0.707106781186498));
#802=DIRECTION('ref_axis',(0.,-0.707106781186498,0.707106781186598));
#803=DIRECTION('',(-1.,5.911327183908E-14,0.));
#804=DIRECTION('center_axis',(0.000168709924576042,-0.707147794530634,-0.707065745335907));
#805=DIRECTION('ref_axis',(-0.154218191498146,0.698588598624971,-0.698706461457343));
#806=DIRECTION('center_axis',(0.,0.,-1.));
#807=DIRECTION('ref_axis',(-1.,0.,0.));
#808=DIRECTION('center_axis',(0.,0.,1.));
#809=DIRECTION('ref_axis',(1.,0.,0.));
#810=DIRECTION('center_axis',(0.,0.,1.));
#811=DIRECTION('ref_axis',(-0.913532481558186,0.406765786587494,0.));
#812=DIRECTION('center_axis',(0.,0.,-1.));
#813=DIRECTION('ref_axis',(0.997640306596115,-0.068657254932091,0.));
#814=DIRECTION('',(-0.847168821495307,-0.531323807001204,0.));
#815=DIRECTION('center_axis',(0.,0.,1.));
#816=DIRECTION('ref_axis',(-0.531323807010912,0.847168821489219,0.));
#817=DIRECTION('',(0.,-1.,0.));
#818=DIRECTION('center_axis',(0.,0.,1.));
#819=DIRECTION('ref_axis',(-1.,0.,0.));
#820=DIRECTION('center_axis',(0.,0.,1.));
#821=DIRECTION('ref_axis',(1.7763568394E-14,-1.,0.));
#822=DIRECTION('',(0.,1.,0.));
#823=DIRECTION('center_axis',(0.,0.,-1.));
#824=DIRECTION('ref_axis',(-1.,0.,0.));
#825=DIRECTION('center_axis',(0.,0.,-1.));
#826=DIRECTION('ref_axis',(-1.,0.,0.));
#827=DIRECTION('center_axis',(0.,0.,-1.));
#828=DIRECTION('ref_axis',(0.930224843900621,0.366990108572514,0.));
#829=DIRECTION('',(0.,0.,-1.));
#830=DIRECTION('center_axis',(0.,0.,-1.));
#831=DIRECTION('ref_axis',(0.930224843901611,0.366990108570004,0.));
#832=DIRECTION('center_axis',(0.,0.,-1.));
#833=DIRECTION('ref_axis',(-1.,0.,0.));
#834=DIRECTION('center_axis',(0.,0.,-1.));
#835=DIRECTION('ref_axis',(-1.7763568394E-14,-1.,0.));
#836=DIRECTION('',(0.,1.,0.));
#837=DIRECTION('center_axis',(0.,0.,-1.));
#838=DIRECTION('ref_axis',(-1.,-2.13162820728E-14,0.));
#839=DIRECTION('',(0.847168821495307,0.531323807001204,0.));
#840=DIRECTION('center_axis',(0.,0.,1.));
#841=DIRECTION('ref_axis',(0.531323806977183,-0.847168821510373,0.));
#842=DIRECTION('center_axis',(0.,0.,-1.));
#843=DIRECTION('ref_axis',(-0.997640306600496,0.0686572548684297,0.));
#844=DIRECTION('',(1.,0.,0.));
#845=DIRECTION('',(0.,-1.,0.));
#846=DIRECTION('center_axis',(0.,0.,-1.));
#847=DIRECTION('ref_axis',(1.,1.59872115546E-14,0.));
#848=DIRECTION('center_axis',(0.,0.,1.));
#849=DIRECTION('ref_axis',(-1.,0.,0.));
#850=DIRECTION('center_axis',(0.,0.,1.));
#851=DIRECTION('ref_axis',(-1.,0.,0.));
#852=DIRECTION('center_axis',(0.,0.,1.));
#853=DIRECTION('ref_axis',(-1.,0.,0.));
#854=DIRECTION('',(0.,0.,-1.));
#855=DIRECTION('center_axis',(-1.,0.,0.));
#856=DIRECTION('ref_axis',(0.,-1.,0.));
#857=DIRECTION('',(0.,0.,1.));
#858=DIRECTION('center_axis',(0.,0.,-1.));
#859=DIRECTION('ref_axis',(1.,0.,0.));
#860=DIRECTION('',(-9.051524961655E-13,-6.209354018615E-13,-1.));
#861=DIRECTION('center_axis',(-0.531323807001276,0.847168821495262,0.));
#862=DIRECTION('ref_axis',(-0.847168821495262,-0.531323807001276,0.));
#863=DIRECTION('',(5.63020369072E-11,3.95184878739E-11,1.));
#864=DIRECTION('center_axis',(0.,0.,-1.));
#865=DIRECTION('ref_axis',(-1.,0.,0.));
#866=DIRECTION('',(0.,0.,1.));
#867=DIRECTION('center_axis',(0.,0.,-1.));
#868=DIRECTION('ref_axis',(-0.997640306600298,0.0686572548713098,0.));
#869=DIRECTION('',(-2.51050575389E-12,-2.480788317755E-12,1.));
#870=DIRECTION('center_axis',(0.,-0.707106781186548,0.707106781186548));
#871=DIRECTION('ref_axis',(-1.83995210002005E-17,0.707106781186548,0.707106781186548));
#872=DIRECTION('center_axis',(0.,0.,1.));
#873=DIRECTION('ref_axis',(-0.6847587224996,0.7287698484163,0.));
#874=DIRECTION('center_axis',(0.,0.,-1.));
#875=DIRECTION('ref_axis',(-1.,0.,0.));
#876=DIRECTION('',(0.,0.,-1.));
#877=DIRECTION('center_axis',(0.,-0.707106781186548,0.707106781186548));
#878=DIRECTION('ref_axis',(0.,0.707106781186547,0.707106781186547));
#879=DIRECTION('center_axis',(0.,1.,0.));
#880=DIRECTION('ref_axis',(-1.,0.,0.));
#881=DIRECTION('',(0.,0.,1.));
#882=DIRECTION('',(1.,0.,-1.7763568394E-14));
#883=DIRECTION('center_axis',(0.,-0.707106781186548,0.707106781186548));
#884=DIRECTION('ref_axis',(0.,0.707106781186548,0.707106781186548));
#885=DIRECTION('center_axis',(0.,0.707106781186548,-0.707106781186548));
#886=DIRECTION('ref_axis',(0.,0.707106781186547,0.707106781186547));
#887=DIRECTION('center_axis',(0.,0.,-1.));
#888=DIRECTION('ref_axis',(-1.,0.,0.));
#889=DIRECTION('center_axis',(0.,0.,1.));
#890=DIRECTION('ref_axis',(1.,0.,0.));
#891=DIRECTION('',(-1.,0.,0.));
#892=DIRECTION('center_axis',(0.,-0.707106781186598,-0.707106781186498));
#893=DIRECTION('ref_axis',(0.,-0.707106781186498,0.707106781186598));
#894=DIRECTION('center_axis',(0.,0.,-1.));
#895=DIRECTION('ref_axis',(1.,0.,0.));
#896=DIRECTION('',(0.,0.,1.));
#897=DIRECTION('center_axis',(1.,0.,0.));
#898=DIRECTION('ref_axis',(0.,1.,0.));
#899=DIRECTION('center_axis',(0.,0.,-1.));
#900=DIRECTION('ref_axis',(-1.,0.,0.));
#901=DIRECTION('center_axis',(0.,0.,-1.));
#902=DIRECTION('ref_axis',(-1.,0.,0.));
#903=DIRECTION('',(0.,0.,-1.));
#904=DIRECTION('center_axis',(0.,0.,1.));
#905=DIRECTION('ref_axis',(1.,0.,0.));
#906=DIRECTION('center_axis',(0.,0.,1.));
#907=DIRECTION('ref_axis',(1.,0.,0.));
#908=DIRECTION('center_axis',(0.,0.,-1.));
#909=DIRECTION('ref_axis',(1.,0.,0.));
#910=DIRECTION('',(0.,0.,-1.));
#911=DIRECTION('center_axis',(0.,0.,-1.));
#912=DIRECTION('ref_axis',(-1.,0.,0.));
#913=DIRECTION('center_axis',(0.,0.,-1.));
#914=DIRECTION('ref_axis',(-1.,0.,0.));
#915=DIRECTION('',(0.,0.,-1.));
#916=DIRECTION('center_axis',(0.,0.,1.));
#917=DIRECTION('ref_axis',(1.,0.,0.));
#918=DIRECTION('center_axis',(0.,0.,1.));
#919=DIRECTION('ref_axis',(1.,0.,0.));
#920=DIRECTION('center_axis',(0.,0.,-1.));
#921=DIRECTION('ref_axis',(1.,0.,0.));
#922=DIRECTION('',(0.,0.,-1.));
#923=CARTESIAN_POINT('',(0.,0.,0.));
#924=CARTESIAN_POINT('Origin',(-33.4,-15.5,-4.));
#925=CARTESIAN_POINT('',(-30.66458412668,-5.135963859102,-3.2));
#926=CARTESIAN_POINT('',(-30.66458412668,-4.092486823074,-3.2));
#927=CARTESIAN_POINT('',(-30.66458412668,-5.135963859102,-3.2));
#928=CARTESIAN_POINT('',(-31.6257440952,-5.515822038076,-1.769637701116));
#929=CARTESIAN_POINT('Ctrl Pts',(-31.6257440951996,-5.5158220380764,-1.76963770111647));
#930=CARTESIAN_POINT('Ctrl Pts',(-31.497630782759,-5.27353642374301,-1.87155199602504));
#931=CARTESIAN_POINT('Ctrl Pts',(-31.3586787338571,-5.04332420960163,-2.00200126699657));
#932=CARTESIAN_POINT('Ctrl Pts',(-31.0643109354344,-4.59641936625488,-2.34604258027332));
#933=CARTESIAN_POINT('Ctrl Pts',(-30.8846358764052,-4.36054593118666,-2.61596808943616));
#934=CARTESIAN_POINT('Ctrl Pts',(-30.721551683151,-4.16039849647074,-3.02190010064243));
#935=CARTESIAN_POINT('Ctrl Pts',(-30.6910015824607,-4.12375566478044,-3.10967159016279));
#936=CARTESIAN_POINT('Ctrl Pts',(-30.6645841266819,-4.09248682307366,-3.20000000000044));
#937=CARTESIAN_POINT('Ctrl Pts',(-31.6257440952001,-5.51582203807604,-1.76963770111611));
#938=CARTESIAN_POINT('Ctrl Pts',(-31.5583026730294,-5.49596241834344,-1.8232874339753));
#939=CARTESIAN_POINT('Ctrl Pts',(-31.4936692921252,-5.47558563868061,-1.87969571447145));
#940=CARTESIAN_POINT('Ctrl Pts',(-31.4319263758616,-5.45500763493645,-1.93864456971356));
#941=CARTESIAN_POINT('Ctrl Pts',(-31.3757643849044,-5.43628967131996,-1.99226505406053));
#942=CARTESIAN_POINT('Ctrl Pts',(-31.3219976882014,-5.41740520402759,-2.04799176876553));
#943=CARTESIAN_POINT('Ctrl Pts',(-31.2708123885419,-5.39864023608293,-2.1055184724944));
#944=CARTESIAN_POINT('Ctrl Pts',(-31.2657260066435,-5.39677552504454,-2.11123501193968));
#945=CARTESIAN_POINT('Ctrl Pts',(-31.2606650793108,-5.39491199140922,-2.11696930536627));
#946=CARTESIAN_POINT('Ctrl Pts',(-31.2556297653227,-5.39304991327132,-2.12272103920872));
#947=CARTESIAN_POINT('Ctrl Pts',(-31.2076967028329,-5.37532408565542,-2.17747397385121));
#948=CARTESIAN_POINT('Ctrl Pts',(-31.1620875767031,-5.35773088194934,-2.23381001861301));
#949=CARTESIAN_POINT('Ctrl Pts',(-31.1189366476505,-5.34051205300348,-2.29141888171936));
#950=CARTESIAN_POINT('Ctrl Pts',(-31.1119385557629,-5.33771955351841,-2.3007617192065));
#951=CARTESIAN_POINT('Ctrl Pts',(-31.1050050266061,-5.33493687157169,-2.31013799027508));
#952=CARTESIAN_POINT('Ctrl Pts',(-31.0981365281139,-5.3321650010446,-2.31954632411455));
#953=CARTESIAN_POINT('Ctrl Pts',(-31.0588142274913,-5.31629598305215,-2.37340923636751));
#954=CARTESIAN_POINT('Ctrl Pts',(-31.0216203068111,-5.30078165707533,-2.4283195337056));
#955=CARTESIAN_POINT('Ctrl Pts',(-30.9864686904657,-5.28572852223425,-2.48429323093898));
#956=CARTESIAN_POINT('Ctrl Pts',(-30.977620476073,-5.28193941157009,-2.49838269039968));
#957=CARTESIAN_POINT('Ctrl Pts',(-30.9689018572613,-5.27817951160487,-2.51253970375444));
#958=CARTESIAN_POINT('Ctrl Pts',(-30.9603118575301,-5.27445051263498,-2.52676486347484));
#959=CARTESIAN_POINT('Ctrl Pts',(-30.9175960600329,-5.25590718669208,-2.59750282168172));
#960=CARTESIAN_POINT('Ctrl Pts',(-30.8780622811444,-5.23813003339152,-2.66992451911585));
#961=CARTESIAN_POINT('Ctrl Pts',(-30.8417986657389,-5.22140463224848,-2.74377313617887));
#962=CARTESIAN_POINT('Ctrl Pts',(-30.8121273389543,-5.2077197076382,-2.80419696389082));
#963=CARTESIAN_POINT('Ctrl Pts',(-30.7846479129773,-5.19473970138974,-2.8655783678095));
#964=CARTESIAN_POINT('Ctrl Pts',(-30.7594513734242,-5.18263133346992,-2.92761895075944));
#965=CARTESIAN_POINT('Ctrl Pts',(-30.7538532799455,-5.1799411316925,-2.94140294606166));
#966=CARTESIAN_POINT('Ctrl Pts',(-30.7483677306567,-5.17729385144476,-2.95521941837657));
#967=CARTESIAN_POINT('Ctrl Pts',(-30.7429954791192,-5.17469113399879,-2.96906499912993));
#968=CARTESIAN_POINT('Ctrl Pts',(-30.713443183274,-5.16037380812023,-3.04522835367708));
#969=CARTESIAN_POINT('Ctrl Pts',(-30.6873166729987,-5.14740729750977,-3.12227128995566));
#970=CARTESIAN_POINT('Ctrl Pts',(-30.6645841266821,-5.13596385910165,-3.20000000000054));
#971=CARTESIAN_POINT('Origin',(-23.6,-15.5,-4.));
#972=CARTESIAN_POINT('',(-26.33541587332,-5.135963859102,-3.2));
#973=CARTESIAN_POINT('',(-24.9223432775,-5.629219416554,-1.475339972105));
#974=CARTESIAN_POINT('Ctrl Pts',(-26.3354158733181,-5.13596385910155,-3.20000000000048));
#975=CARTESIAN_POINT('Ctrl Pts',(-26.3056389925541,-5.1509533766093,-3.09818480962569));
#976=CARTESIAN_POINT('Ctrl Pts',(-26.2701132890365,-5.16851851012887,-2.99789053929655));
#977=CARTESIAN_POINT('Ctrl Pts',(-26.0826443743641,-5.25810414624793,-2.54974721703093));
#978=CARTESIAN_POINT('Ctrl Pts',(-25.8638917502698,-5.35391865310381,-2.23275613859844));
#979=CARTESIAN_POINT('Ctrl Pts',(-25.4180480351,-5.50658306472551,-1.78803096025194));
#980=CARTESIAN_POINT('Ctrl Pts',(-25.1829804694292,-5.57493902042506,-1.61185413037031));
#981=CARTESIAN_POINT('Ctrl Pts',(-24.9223432774999,-5.62921941655356,-1.475339972105));
#982=CARTESIAN_POINT('',(-26.33541587332,-4.117073985044,-3.2));
#983=CARTESIAN_POINT('Origin',(-23.6,-7.04427434821121,-4.));
#984=CARTESIAN_POINT('',(-26.33541587332,-4.117073985044,-3.2));
#985=CARTESIAN_POINT('Origin',(-28.5,-25.6,-9.));
#986=CARTESIAN_POINT('',(-30.5,-24.6,-9.));
#987=CARTESIAN_POINT('Origin',(-28.5,-24.6,-9.));
#988=CARTESIAN_POINT('',(-30.5,-3.90375100750932,-9.));
#989=CARTESIAN_POINT('',(-30.5,-25.6,-9.));
#990=CARTESIAN_POINT('',(-30.0316340042694,-3.42521828757313,-7.71388286810034));
#991=CARTESIAN_POINT('Ctrl Pts',(-30.0316340042697,-3.42521828757217,-7.71388286810078));
#992=CARTESIAN_POINT('Ctrl Pts',(-30.1577968909066,-3.54376207374453,-7.86412996648482));
#993=CARTESIAN_POINT('Ctrl Pts',(-30.2717956533531,-3.65929801800671,-8.04664736399295));
#994=CARTESIAN_POINT('Ctrl Pts',(-30.4010314565461,-3.79536084013477,-8.36615098809802));
#995=CARTESIAN_POINT('Ctrl Pts',(-30.4379528151753,-3.83548221023947,-8.48916828220387));
#996=CARTESIAN_POINT('Ctrl Pts',(-30.4874342764697,-3.88969058588144,-8.74184780362981));
#997=CARTESIAN_POINT('Ctrl Pts',(-30.5,-3.90375100750932,-8.87151463263686));
#998=CARTESIAN_POINT('Ctrl Pts',(-30.5,-3.90375100750932,-9.));
#999=CARTESIAN_POINT('',(-28.55,-1.02140518265514E-13,-7.00062509768678));
#1000=CARTESIAN_POINT('Ctrl Pts',(-28.55,-1.38777878078145E-16,-7.00062509768678));
#1001=CARTESIAN_POINT('Ctrl Pts',(-28.55,-0.481394309131515,-7.00062509768678));
#1002=CARTESIAN_POINT('Ctrl Pts',(-28.6290818880926,-0.99938317602628,-6.99749924618907));
#1003=CARTESIAN_POINT('Ctrl Pts',(-28.9522531826984,-1.97003021394062,-7.04497001664641));
#1004=CARTESIAN_POINT('Ctrl Pts',(-29.196484490245,-2.42243543576787,-7.09968304157119));
#1005=CARTESIAN_POINT('Ctrl Pts',(-29.6406770289406,-3.02445836576239,-7.34537531698208));
#1006=CARTESIAN_POINT('Ctrl Pts',(-29.8594383718517,-3.26342171828668,-7.50881547613742));
#1007=CARTESIAN_POINT('Ctrl Pts',(-30.0316340042694,-3.42521828757306,-7.71388286810037));
#1008=CARTESIAN_POINT('',(-28.45,-7.105427357601E-14,-7.00062509768678));
#1009=CARTESIAN_POINT('Origin',(-28.5,0.,-9.));
#1010=CARTESIAN_POINT('',(-27.184200140631,-3.20878005404753,-7.49378928098207));
#1011=CARTESIAN_POINT('Ctrl Pts',(-27.1842001382708,-3.20878005015935,-7.49378928304387));
#1012=CARTESIAN_POINT('Ctrl Pts',(-27.303371572858,-3.08123670011982,-7.38968316071538));
#1013=CARTESIAN_POINT('Ctrl Pts',(-27.4261899189986,-2.93383226916836,-7.30838979570966));
#1014=CARTESIAN_POINT('Ctrl Pts',(-27.803515509755,-2.42243543576787,-7.09968304157119));
#1015=CARTESIAN_POINT('Ctrl Pts',(-28.0477468173016,-1.97003021394062,-7.04497001664641));
#1016=CARTESIAN_POINT('Ctrl Pts',(-28.3709181119074,-0.99938317602628,-6.99749924618907));
#1017=CARTESIAN_POINT('Ctrl Pts',(-28.45,-0.481394309131515,-7.00062509768678));
#1018=CARTESIAN_POINT('Ctrl Pts',(-28.45,0.,-7.00062509768678));
#1019=CARTESIAN_POINT('',(-27.184273440462,-3.20870161527198,-10.506274749349));
#1020=CARTESIAN_POINT('Origin',(-28.5,-1.80072731840246,-9.));
#1021=CARTESIAN_POINT('',(-28.45,0.,-10.9993749023132));
#1022=CARTESIAN_POINT('Ctrl Pts',(-28.45,0.,-10.9993749023132));
#1023=CARTESIAN_POINT('Ctrl Pts',(-28.45,-0.481394309131515,-10.9993749023132));
#1024=CARTESIAN_POINT('Ctrl Pts',(-28.3709181119074,-0.99938317602628,-11.0025007538109));
#1025=CARTESIAN_POINT('Ctrl Pts',(-28.0477468173016,-1.97003021394062,-10.9550299833536));
#1026=CARTESIAN_POINT('Ctrl Pts',(-27.803515509755,-2.42243543576787,-10.9003169584288));
#1027=CARTESIAN_POINT('Ctrl Pts',(-27.4262115722048,-2.93380292214995,-10.691622181136));
#1028=CARTESIAN_POINT('Ctrl Pts',(-27.3034221183116,-3.08117676274682,-10.6103507696701));
#1029=CARTESIAN_POINT('Ctrl Pts',(-27.1842734335975,-3.20870160396478,-10.5062747433529));
#1030=CARTESIAN_POINT('',(-28.55,0.,-10.9993749023132));
#1031=CARTESIAN_POINT('Origin',(-28.5,0.,-9.));
#1032=CARTESIAN_POINT('',(-30.0316340042629,-3.42521828756674,-10.2861171319073));
#1033=CARTESIAN_POINT('Ctrl Pts',(-30.0316340042628,-3.42521828756691,-10.2861171319074));
#1034=CARTESIAN_POINT('Ctrl Pts',(-29.8594383718463,-3.2634217182809,-10.491184523867));
#1035=CARTESIAN_POINT('Ctrl Pts',(-29.6406770289384,-3.02445836575943,-10.6546246830191));
#1036=CARTESIAN_POINT('Ctrl Pts',(-29.196484490245,-2.42243543576787,-10.9003169584288));
#1037=CARTESIAN_POINT('Ctrl Pts',(-28.9522531826984,-1.97003021394062,-10.9550299833536));
#1038=CARTESIAN_POINT('Ctrl Pts',(-28.6290818880926,-0.99938317602628,-11.0025007538109));
#1039=CARTESIAN_POINT('Ctrl Pts',(-28.55,-0.481394309131515,-10.9993749023132));
#1040=CARTESIAN_POINT('Ctrl Pts',(-28.55,0.,-10.9993749023132));
#1041=CARTESIAN_POINT('Ctrl Pts',(-30.5,-3.90375100750932,-9.));
#1042=CARTESIAN_POINT('Ctrl Pts',(-30.5,-3.90375100750932,-9.12848536736314));
#1043=CARTESIAN_POINT('Ctrl Pts',(-30.4874342764697,-3.88969058588145,-9.25815219637019));
#1044=CARTESIAN_POINT('Ctrl Pts',(-30.4379528151753,-3.83548221023948,-9.51083171779614));
#1045=CARTESIAN_POINT('Ctrl Pts',(-30.4010314565461,-3.79536084013477,-9.63384901190197));
#1046=CARTESIAN_POINT('Ctrl Pts',(-30.2717956533517,-3.65929801800521,-9.95335263601057));
#1047=CARTESIAN_POINT('Ctrl Pts',(-30.1577968909026,-3.54376207374052,-10.1358700335215));
#1048=CARTESIAN_POINT('Ctrl Pts',(-30.0316340042632,-3.42521828756602,-10.286117131907));
#1049=CARTESIAN_POINT('Origin',(-27.18399164599,-3.209003174703,0.));
#1050=CARTESIAN_POINT('',(-27.184095663683,-3.20889185732983,-3.19999999999994));
#1051=CARTESIAN_POINT('',(-27.18438782669,-3.208579209592,-15.20733400939));
#1052=CARTESIAN_POINT('',(-26.33541587332,-4.117073985044,-3.2));
#1053=CARTESIAN_POINT('',(-24.9223432775,-5.629219416553,-0.3720313656744));
#1054=CARTESIAN_POINT('',(-24.9223432775,-5.629219416553,-0.3720313656744));
#1055=CARTESIAN_POINT('',(-24.57468668523,-6.001250782228,0.));
#1056=CARTESIAN_POINT('',(-24.9223432775,-5.629219416553,-0.3720313656744));
#1057=CARTESIAN_POINT('',(-19.25490783664,-11.69400804361,0.));
#1058=CARTESIAN_POINT('',(-19.25490783664,-11.69400804361,0.));
#1059=CARTESIAN_POINT('',(-19.25490783663,-11.69400804362,-18.));
#1060=CARTESIAN_POINT('',(-19.25490783663,-11.69400804362,-18.));
#1061=CARTESIAN_POINT('',(-24.57468668523,-6.00125078223,-18.));
#1062=CARTESIAN_POINT('',(-24.57468668523,-6.00125078223,-18.));
#1063=CARTESIAN_POINT('',(-27.1843878095026,-3.20857921552146,-15.2073284382579));
#1064=CARTESIAN_POINT('',(-32.8762137494569,2.88230994848993,-9.11643926928004));
#1065=CARTESIAN_POINT('',(-27.18438782669,-3.208579209592,-15.20733400939));
#1066=CARTESIAN_POINT('Origin',(-23.75,0.,0.));
#1067=CARTESIAN_POINT('',(-28.45,-1.46637102441E-13,-6.001250782228));
#1068=CARTESIAN_POINT('',(-28.45,0.,-8.001250782228));
#1069=CARTESIAN_POINT('',(-27.52398914347,-2.801250782228,-3.2));
#1070=CARTESIAN_POINT('Origin',(-23.75,0.,-6.00125078222881));
#1071=CARTESIAN_POINT('Origin',(-23.75,0.,-3.2));
#1072=CARTESIAN_POINT('Origin',(-28.55,0.,0.));
#1073=CARTESIAN_POINT('',(-28.55,-1.798715102887E-13,-6.001250782228));
#1074=CARTESIAN_POINT('',(-28.55,-1.798715102887E-13,-6.001250782228));
#1075=CARTESIAN_POINT('',(-28.45,-1.46637102441E-13,-6.001250782228));
#1076=CARTESIAN_POINT('Origin',(-33.25,0.,0.));
#1077=CARTESIAN_POINT('',(-30.0316340043,-3.425218287598,-3.2));
#1078=CARTESIAN_POINT('',(-30.03163400425,-3.425218287554,-15.42396750532));
#1079=CARTESIAN_POINT('',(-29.47601085653,-2.801250782228,-3.2));
#1080=CARTESIAN_POINT('Origin',(-33.25,0.,-3.2));
#1081=CARTESIAN_POINT('Origin',(-33.25,0.,-6.00125078222881));
#1082=CARTESIAN_POINT('Origin',(-17.1,-24.6,0.));
#1083=CARTESIAN_POINT('',(-39.5,-24.6,-18.));
#1084=CARTESIAN_POINT('',(-39.5,-24.6,0.));
#1085=CARTESIAN_POINT('',(-39.5,-24.6,-18.));
#1086=CARTESIAN_POINT('',(-19.1,-24.6,-18.));
#1087=CARTESIAN_POINT('',(-39.5,-24.6,-18.));
#1088=CARTESIAN_POINT('',(-19.1,-24.6,0.));
#1089=CARTESIAN_POINT('',(-19.1,-24.6,0.));
#1090=CARTESIAN_POINT('',(-19.1,-24.6,0.));
#1091=CARTESIAN_POINT('Origin',(-23.75,-2.533727104776E-13,0.));
#1092=CARTESIAN_POINT('',(-28.5,-3.240370349204,-2.760880433024));
#1093=CARTESIAN_POINT('',(-28.5,-3.240370349204,-3.2));
#1094=CARTESIAN_POINT('',(-28.5,-3.240370349204,-2.760880433024));
#1095=CARTESIAN_POINT('Origin',(-23.75,-2.533727104776E-13,-6.00125078222856));
#1096=CARTESIAN_POINT('Origin',(-23.75,-2.533727104776E-13,-3.2));
#1097=CARTESIAN_POINT('Origin',(-33.25,-2.464613634291E-13,0.));
#1098=CARTESIAN_POINT('',(-31.6257440952,-5.515822038076,-0.485428744152));
#1099=CARTESIAN_POINT('Origin',(-33.25,-2.464613634291E-13,-6.00125078222857));
#1100=CARTESIAN_POINT('Origin',(-33.25,-2.464613634291E-13,-3.2));
#1101=CARTESIAN_POINT('',(-31.6257440952,-5.515822038076,-0.485428744152));
#1102=CARTESIAN_POINT('Origin',(-41.5,-6.001250782228,3.663735981263E-14));
#1103=CARTESIAN_POINT('',(-31.86182407676,-6.001250782226,-1.783906355968E-12));
#1104=CARTESIAN_POINT('',(-24.57468668523,-6.001250782228,0.));
#1105=CARTESIAN_POINT('Origin',(-22.7124757366777,-10.1505672538601,4.15198105262383));
#1106=CARTESIAN_POINT('Origin',(-29.3,-12.,0.));
#1107=CARTESIAN_POINT('',(-17.1,-17.15614110697,0.));
#1108=CARTESIAN_POINT('Origin',(-25.1,-17.15614110697,0.));
#1109=CARTESIAN_POINT('',(-32.53468667711,-8.706119036024,0.));
#1110=CARTESIAN_POINT('Origin',(-24.5535642243,-9.255377074928,0.));
#1111=CARTESIAN_POINT('',(-33.93363617591,-11.04165373584,0.));
#1112=CARTESIAN_POINT('Origin',(-35.5276075969,-8.500147271344,0.));
#1113=CARTESIAN_POINT('',(-39.62529522802,-14.61132471403,0.));
#1114=CARTESIAN_POINT('',(-33.93363617591,-11.04165373584,0.));
#1115=CARTESIAN_POINT('',(-41.5,-18.,0.));
#1116=CARTESIAN_POINT('Origin',(-37.5,-18.,0.));
#1117=CARTESIAN_POINT('',(-41.5,-22.6,0.));
#1118=CARTESIAN_POINT('',(-41.5,-18.,0.));
#1119=CARTESIAN_POINT('Origin',(-39.5,-22.6,-2.13162820728E-14));
#1120=CARTESIAN_POINT('',(-17.1,-22.6,0.));
#1121=CARTESIAN_POINT('Origin',(-19.1,-22.6,0.));
#1122=CARTESIAN_POINT('',(-17.1,-22.6,0.));
#1123=CARTESIAN_POINT('',(-21.55,-18.,0.));
#1124=CARTESIAN_POINT('Origin',(-19.5,-18.,0.));
#1125=CARTESIAN_POINT('',(-39.55,-18.,0.));
#1126=CARTESIAN_POINT('Origin',(-37.5,-18.,0.));
#1127=CARTESIAN_POINT('Origin',(-25.1,-17.15614110697,0.));
#1128=CARTESIAN_POINT('',(-17.1,-17.15614110697,-18.));
#1129=CARTESIAN_POINT('',(-17.1,-17.15614110697,0.));
#1130=CARTESIAN_POINT('Origin',(-25.1,-17.15614110697,-18.));
#1131=CARTESIAN_POINT('Origin',(-29.3,-12.,-18.));
#1132=CARTESIAN_POINT('',(-41.5,-22.6,-18.));
#1133=CARTESIAN_POINT('Origin',(-39.5,-22.6,-18.));
#1134=CARTESIAN_POINT('',(-41.5,-18.,-18.));
#1135=CARTESIAN_POINT('',(-41.5,-22.6,-18.));
#1136=CARTESIAN_POINT('',(-39.62529522803,-14.61132471404,-18.));
#1137=CARTESIAN_POINT('Origin',(-37.5,-18.,-18.));
#1138=CARTESIAN_POINT('',(-33.93363617597,-11.04165373588,-18.));
#1139=CARTESIAN_POINT('',(-39.62529522803,-14.61132471404,-18.));
#1140=CARTESIAN_POINT('',(-32.5346866771,-8.706119035972,-18.));
#1141=CARTESIAN_POINT('Origin',(-35.5276075969,-8.500147271344,-18.));
#1142=CARTESIAN_POINT('',(-31.86182407677,-6.00125078223,-18.));
#1143=CARTESIAN_POINT('Origin',(-24.5535642243,-9.255377074928,-18.));
#1144=CARTESIAN_POINT('',(-31.86182407677,-6.00125078223,-18.));
#1145=CARTESIAN_POINT('',(-17.1,-22.6,-18.));
#1146=CARTESIAN_POINT('',(-17.1,-17.15614110697,-18.));
#1147=CARTESIAN_POINT('Origin',(-19.1,-22.6,-18.));
#1148=CARTESIAN_POINT('',(-35.95,-18.,-18.));
#1149=CARTESIAN_POINT('Origin',(-37.5,-18.,-18.));
#1150=CARTESIAN_POINT('',(-17.95,-18.,-18.));
#1151=CARTESIAN_POINT('Origin',(-19.5,-18.,-18.));
#1152=CARTESIAN_POINT('Origin',(-39.5,-22.6,-41.4648));
#1153=CARTESIAN_POINT('',(-41.5,-22.6,0.));
#1154=CARTESIAN_POINT('Origin',(-41.5,-22.,0.));
#1155=CARTESIAN_POINT('',(-41.5,-18.,-18.));
#1156=CARTESIAN_POINT('Origin',(-37.5,-18.,0.));
#1157=CARTESIAN_POINT('',(-39.62529522802,-14.61132471403,0.));
#1158=CARTESIAN_POINT('Origin',(-39.62529522801,-14.61132471402,0.));
#1159=CARTESIAN_POINT('',(-33.93363617592,-11.04165373585,-18.));
#1160=CARTESIAN_POINT('Origin',(-35.5276075969,-8.500147271344,0.));
#1161=CARTESIAN_POINT('',(-32.534686677107,-8.70611903603232,-9.));
#1162=CARTESIAN_POINT('Origin',(-24.5535642243,-9.255377074928,0.));
#1163=CARTESIAN_POINT('',(-30.0316340042,-3.42521828751,-15.42396750528));
#1164=CARTESIAN_POINT('',(-30.03163400425,-3.425218287554,-15.42396750532));
#1165=CARTESIAN_POINT('Origin',(-24.5535642243,-9.255377074928,-21.254126292698));
#1166=CARTESIAN_POINT('Origin',(-24.5535642243,-9.255377074928,-3.2));
#1167=CARTESIAN_POINT('Origin',(-33.25,0.,0.));
#1168=CARTESIAN_POINT('',(-28.55,0.,-11.99874921777));
#1169=CARTESIAN_POINT('',(-28.55,0.,-9.998749217772));
#1170=CARTESIAN_POINT('Origin',(-33.25,0.,-11.99874921777));
#1171=CARTESIAN_POINT('Origin',(-28.55,0.,0.));
#1172=CARTESIAN_POINT('',(-28.45,0.,-11.99874921777));
#1173=CARTESIAN_POINT('',(-28.45,0.,-11.99874921777));
#1174=CARTESIAN_POINT('',(-28.55,0.,-11.99874921777));
#1175=CARTESIAN_POINT('Origin',(-41.5,-2.875477633779E-14,-11.99874921777));
#1176=CARTESIAN_POINT('Origin',(-23.75,0.,-11.99874921777));
#1177=CARTESIAN_POINT('Origin',(-23.75,0.,0.));
#1178=CARTESIAN_POINT('Origin',(0.,0.,-3.2));
#1179=CARTESIAN_POINT('',(-27.52398914347,-2.801250782228,-3.2));
#1180=CARTESIAN_POINT('Origin',(-41.5,-6.001250782228,3.663735981263E-14));
#1181=CARTESIAN_POINT('Origin',(-19.1,-22.6,23.4648));
#1182=CARTESIAN_POINT('',(-17.1,-22.6,-18.));
#1183=CARTESIAN_POINT('Origin',(-17.1,-14.,0.));
#1184=CARTESIAN_POINT('Origin',(-37.5,-18.,0.));
#1185=CARTESIAN_POINT('',(-35.95,-18.,-5.));
#1186=CARTESIAN_POINT('Origin',(-37.5,-18.,-5.));
#1187=CARTESIAN_POINT('',(-35.95,-18.,0.));
#1188=CARTESIAN_POINT('Origin',(-37.5,-18.,-5.));
#1189=CARTESIAN_POINT('',(-39.55,-18.,-5.));
#1190=CARTESIAN_POINT('Origin',(-37.5,-18.,-5.));
#1191=CARTESIAN_POINT('Origin',(-37.5,-18.,0.));
#1192=CARTESIAN_POINT('',(-39.55,-18.,0.));
#1193=CARTESIAN_POINT('Origin',(-19.5,-18.,0.));
#1194=CARTESIAN_POINT('',(-17.95,-18.,-5.));
#1195=CARTESIAN_POINT('Origin',(-19.5,-18.,-5.));
#1196=CARTESIAN_POINT('',(-17.95,-18.,0.));
#1197=CARTESIAN_POINT('Origin',(-19.5,-18.,-5.));
#1198=CARTESIAN_POINT('',(-21.55,-18.,-5.));
#1199=CARTESIAN_POINT('Origin',(-19.5,-18.,-5.));
#1200=CARTESIAN_POINT('Origin',(-19.5,-18.,0.));
#1201=CARTESIAN_POINT('',(-21.55,-18.,0.));
#1202=UNCERTAINTY_MEASURE_WITH_UNIT(LENGTH_MEASURE(0.01),#1206,
'DISTANCE_ACCURACY_VALUE',
'Maximum model space distance between geometric entities at asserted c
onnectivities');
#1203=UNCERTAINTY_MEASURE_WITH_UNIT(LENGTH_MEASURE(0.01),#1206,
'DISTANCE_ACCURACY_VALUE',
'Maximum model space distance between geometric entities at asserted c
onnectivities');
#1204=(
GEOMETRIC_REPRESENTATION_CONTEXT(3)
GLOBAL_UNCERTAINTY_ASSIGNED_CONTEXT((#1202))
GLOBAL_UNIT_ASSIGNED_CONTEXT((#1206,#1208,#1209))
REPRESENTATION_CONTEXT('','3D')
);
#1205=(
GEOMETRIC_REPRESENTATION_CONTEXT(3)
GLOBAL_UNCERTAINTY_ASSIGNED_CONTEXT((#1203))
GLOBAL_UNIT_ASSIGNED_CONTEXT((#1206,#1208,#1209))
REPRESENTATION_CONTEXT('','3D')
);
#1206=(
LENGTH_UNIT()
NAMED_UNIT(*)
SI_UNIT(.MILLI.,.METRE.)
);
#1207=(
LENGTH_UNIT()
NAMED_UNIT(*)
SI_UNIT($,.METRE.)
);
#1208=(
NAMED_UNIT(*)
PLANE_ANGLE_UNIT()
SI_UNIT($,.RADIAN.)
);
#1209=(
NAMED_UNIT(*)
SI_UNIT($,.STERADIAN.)
SOLID_ANGLE_UNIT()
);
#1210=SHAPE_DEFINITION_REPRESENTATION(#1211,#1212);
#1211=PRODUCT_DEFINITION_SHAPE('',$,#1214);
#1212=SHAPE_REPRESENTATION('',(#658),#1204);
#1213=PRODUCT_DEFINITION_CONTEXT('part definition',#1218,'design');
#1214=PRODUCT_DEFINITION('(Unsaved)','(Unsaved)',#1215,#1213);
#1215=PRODUCT_DEFINITION_FORMATION('',$,#1220);
#1216=PRODUCT_RELATED_PRODUCT_CATEGORY('(Unsaved)','(Unsaved)',(#1220));
#1217=APPLICATION_PROTOCOL_DEFINITION('international standard',
'automotive_design',2009,#1218);
#1218=APPLICATION_CONTEXT(
'Core Data for Automotive Mechanical Design Process');
#1219=PRODUCT_CONTEXT('part definition',#1218,'mechanical');
#1220=PRODUCT('(Unsaved)','(Unsaved)',$,(#1219));
#1221=PRESENTATION_STYLE_ASSIGNMENT((#1223));
#1222=PRESENTATION_STYLE_ASSIGNMENT((#1224));
#1223=SURFACE_STYLE_USAGE(.BOTH.,#1225);
#1224=SURFACE_STYLE_USAGE(.BOTH.,#1226);
#1225=SURFACE_SIDE_STYLE('',(#1227));
#1226=SURFACE_SIDE_STYLE('',(#1228));
#1227=SURFACE_STYLE_FILL_AREA(#1229);
#1228=SURFACE_STYLE_FILL_AREA(#1230);
#1229=FILL_AREA_STYLE('Steel - Satin',(#1231));
#1230=FILL_AREA_STYLE('Opaque(38,43,48)',(#1232));
#1231=FILL_AREA_STYLE_COLOUR('Steel - Satin',#1233);
#1232=FILL_AREA_STYLE_COLOUR('Opaque(38,43,48)',#1234);
#1233=COLOUR_RGB('Steel - Satin',0.627450980392157,0.627450980392157,0.627450980392157);
#1234=COLOUR_RGB('Opaque(38,43,48)',0.149019607843137,0.168627450980392,
0.188235294117647);
ENDSEC;
END-ISO-10303-21;
